{
	"info": {
		"_postman_id": "b9bdb52a-6479-4243-a39b-f4e96fd85d72",
		"name": "blockchain",
		"schema": "https://schema.getpostman.com/json/collection/v2.1.0/collection.json"
	},
	"item": [
		{
			"name": "/transactions/new",
			"request": {
				"method": "POST",
				"header": [
					{
						"key": "Content-Type",
						"name": "Content-Type",
						"value": "application/json",
						"type": "text"
					}
				],
				"body": {
					"mode": "raw",
					"raw": "{\n\t\"sender\": \"nfbezbjnklenfjbzejv\",\n\t\"recipient\": \"cndsvcnuezbueiz\",\n\t\"amount\": 10\n}"
				},
				"url": {
					"raw": "localhost:3000/transactions/new",
					"host": [
						"localhost"
					],
					"port": "3000",
					"path": [
						"transactions",
						"new"
					]
				}
			},
			"response": []
		},
		{
			"name": "/mine",
			"request": {
				"method": "GET",
				"header": [],
				"url": {
					"raw": "localhost:3000/mine",
					"host": [
						"localhost"
					],
					"port": "3000",
					"path": [
						"mine"
					]
				}
			},
			"response": []
		},
		{
			"name": "/chain",
			"request": {
				"method": "GET",
				"header": [],
				"url": {
					"raw": "localhost:3000/chain",
					"host": [
						"localhost"
					],
					"port": "3000",
					"path": [
						"chain"
					]
				}
			},
			"response": []
		},
		{
			"name": "/nodes/register",
			"request": {
				"method": "POST",
				"header": [
					{
						"key": "Content-Type",
						"name": "Content-Type",
						"value": "application/json",
						"type": "text"
					}
				],
				"body": {
					"mode": "raw",
					"raw": "{\n\t\"nodes\" : [\n\t\t\"http://localhost:3000\"\n\t]\n}"
				},
				"url": {
					"raw": "http://localhost:3000/nodes/register",
					"protocol": "http",
					"host": [
						"localhost"
					],
					"port": "3000",
					"path": [
						"nodes",
						"register"
					]
				}
			},
			"response": []
		},
		{
			"name": "/nodes/resolve",
			"request": {
				"method": "GET",
				"header": [],
				"url": {
					"raw": "http://localhost:3000/nodes/resolve",
					"protocol": "http",
					"host": [
						"localhost"
					],
					"port": "3000",
					"path": [
						"nodes",
						"resolve"
					]
				}
			},
			"response": []
		}
	]
}